{
  "ncep.db" : {
    "url" : "jdbc:mysql://172.17.0.1:3366/ncep_service",
    "driver_class" : "com.mysql.jdbc.Driver",
    "max_pool_size" : 10,
    "user" : "ncep",
    "password" : "ncep!123"
  },

  "ncep.io.rest" : {
    "url" : "172.17.0.1",
    "path" : "/send/action",
    "port" : 8082
  },

  "ncep.web.socket" : {
    "url" : "172.17.0.1",
    "port" : 8891
  },

  "ncep.out.email" : {
    "host" : "smtp.gmail.com",
    "port" : 587,
    "user" : "ncepEngine@gmail.com",
    "password" : "@ncep12345"
  },

  "version" : "ELK",

  "site" : "NIPA"

}